<?xml version="1.0" encoding="UTF-8"?>
<!-- Generator: Adobe Illustrator 19.0.0, SVG Export Plug-In . SVG Version: 6.00 Build 0)  -->
<svg version="1.1" xmlns="http://www.w3.org/2000/svg" xmlns:xlink="http://www.w3.org/1999/xlink" width="512" height="512"
	 viewBox="0 0 512 512" style="enable-background:new 0 0 512 512;" xml:space="preserve">
<g>
	<g>
		<path d="M255,16C114.39,16,0,116.928,0,241c0,52.412,20.742,103.198,58.491,143.452c7.471,30.806-1.597,63.442-24.097,85.942
			C24.986,479.803,31.639,496,45,496c42.744,0,83.95-16.743,114.565-46.274C189.858,460.536,221.909,466,255,466
			c140.61,0,257-100.928,257-225S395.61,16,255,16z M137,286c-24.814,0-45-20.186-45-45c0-24.814,20.186-45,45-45
			c24.814,0,45,20.186,45,45C182,265.814,161.814,286,137,286z M257,286c-24.814,0-45-20.186-45-45c0-24.814,20.186-45,45-45
			c24.814,0,45,20.186,45,45C302,265.814,281.814,286,257,286z M377,286c-24.814,0-45-20.186-45-45c0-24.814,20.186-45,45-45
			c24.814,0,45,20.186,45,45C422,265.814,401.814,286,377,286z"/>
	</g>
</g>
</svg>
